[gd_scene load_steps=3 format=2]

[ext_resource path="res://Assets/UFO/UFOGreen.png" type="Texture" id=1]
[ext_resource path="res://Scripts/Enemy.gd" type="Script" id=2]

[node name="EnemyBody" type="KinematicBody2D"]
scale = Vector2( 0.36, 0.36 )
script = ExtResource( 2 )

[node name="EnemySprite" type="Sprite" parent="."]
texture = ExtResource( 1 )

[node name="EnemyCollision" type="CollisionPolygon2D" parent="."]
polygon = PoolVector2Array( 1.32675, -61.8723, 16.472, -57.4178, 33.3991, -39.5998, 32.5082, -20, 24.4901, -7.52742, 46.7626, 4.94516, 56.5625, 3.16336, 61.017, 11.1814, 60.1261, 19.1995, 61.9079, 31.6721, 50.3262, 37.0175, 34.29, 54.8355, 2.21765, 61.0718, -34.3092, 55.7264, -48.5636, 36.1266, -61.927, 30.7812, -58.3635, 15.6359, -62.8179, 8.50876, -51.2363, 2.27246, -45, 5.83606, -23.6184, -3.96384, -36.9819, -28.0181, -22.7275, -58.3087 )

[node name="Timer" type="Timer" parent="."]
wait_time = 4.0
autostart = true
[connection signal="timeout" from="Timer" to="." method="_on_Timer_timeout"]
