[gd_scene load_steps=4 format=2]

[ext_resource path="res://Assets/Text/GameOver.png" type="Texture" id=1]
[ext_resource path="res://Fonts/GameOverButton.tres" type="DynamicFont" id=2]
[ext_resource path="res://Scripts/GameOver.gd" type="Script" id=3]

[node name="GameOverLayer" type="Control"]
anchor_right = 1.0
anchor_bottom = 1.0
script = ExtResource( 3 )
__meta__ = {
"_edit_use_anchors_": false
}

[node name="ColorRect" type="ColorRect" parent="."]
margin_left = -8.98987
margin_top = -13.4846
margin_right = 1053.01
margin_bottom = 667.515
color = Color( 0, 0, 0, 0.6 )
__meta__ = {
"_edit_use_anchors_": false
}

[node name="GameOver" type="Sprite" parent="."]
position = Vector2( 512, 219 )
z_index = 1
texture = ExtResource( 1 )

[node name="RestartButton" type="LinkButton" parent="."]
margin_left = 424.504
margin_top = 348.778
margin_right = 652.504
margin_bottom = 416.778
custom_fonts/font = ExtResource( 2 )
text = "RESTART"
underline = 1
__meta__ = {
"_edit_use_anchors_": false
}

[node name="ExitButton" type="LinkButton" parent="."]
margin_left = 480.21
margin_top = 528.07
margin_right = 592.21
margin_bottom = 589.07
custom_fonts/font = ExtResource( 2 )
text = "EXIT"
underline = 1
__meta__ = {
"_edit_use_anchors_": false
}

[node name="LinkButton" type="LinkButton" parent="."]
margin_left = 388.372
margin_top = 440.005
margin_right = 694.372
margin_bottom = 501.005
custom_fonts/font = ExtResource( 2 )
text = "MAIN MENU"
underline = 1
__meta__ = {
"_edit_use_anchors_": false
}
[connection signal="pressed" from="RestartButton" to="." method="_on_RestartButton_pressed"]
[connection signal="pressed" from="ExitButton" to="." method="_on_ExitButton_pressed"]
[connection signal="pressed" from="LinkButton" to="." method="_on_LinkButton_pressed"]
