[gd_scene load_steps=4 format=2]

[ext_resource path="res://Scripts/HealthBar.gd" type="Script" id=1]
[ext_resource path="res://Assets/continuum bold.ttf" type="DynamicFontData" id=2]

[sub_resource type="DynamicFont" id=1]
outline_size = 1
outline_color = Color( 0.905882, 0.952941, 0.368627, 1 )
font_data = ExtResource( 2 )

[node name="HealthBar" type="ColorRect"]
margin_top = -1.12247
margin_right = 272.0
margin_bottom = 28.8775
color = Color( 0.964706, 0.984314, 0.615686, 1 )
script = ExtResource( 1 )
__meta__ = {
"_edit_use_anchors_": false
}

[node name="HealthIndicator" type="ColorRect" parent="."]
margin_left = 3.0
margin_top = 3.0
margin_right = 269.0
margin_bottom = 27.0
color = Color( 0.968627, 0.623529, 0.286275, 1 )
__meta__ = {
"_edit_use_anchors_": false
}

[node name="Label" type="Label" parent="."]
margin_left = 2.92861
margin_top = -19.1225
margin_right = 58.9286
margin_bottom = -1.12247
custom_fonts/font = SubResource( 1 )
custom_colors/font_color = Color( 1, 1, 1, 1 )
custom_colors/font_outline_modulate = Color( 1, 0.419608, 0.419608, 1 )
text = "HEALTH"
__meta__ = {
"_edit_use_anchors_": false
}
