[gd_scene load_steps=20 format=2]

[ext_resource path="res://Assets/GrassGround.png" type="Texture" id=1]

[sub_resource type="ConvexPolygonShape2D" id=1]
points = PoolVector2Array( 0, 0, 0, 0, 70, 0, 70, 35, 35, 70, 0, 70 )

[sub_resource type="ConvexPolygonShape2D" id=2]
points = PoolVector2Array( 0, 0, 0, 0, 70, 0, 70, 70, 35, 70, 0, 35 )

[sub_resource type="ConvexPolygonShape2D" id=3]
points = PoolVector2Array( 70, 70, 0, 70, 0, 0, 70, 0 )

[sub_resource type="ConvexPolygonShape2D" id=4]
points = PoolVector2Array( 70, 70, 0, 70, 0, 0, 70, 0 )

[sub_resource type="ConvexPolygonShape2D" id=5]
points = PoolVector2Array( 70, 70, 0, 70, 0, 0, 70, 0 )

[sub_resource type="ConvexPolygonShape2D" id=6]
points = PoolVector2Array( 70, 70, 0, 70, 0, 0, 70, 0 )

[sub_resource type="ConvexPolygonShape2D" id=7]
points = PoolVector2Array( 0, 70, 0, 70, 70, 0, 70, 70 )

[sub_resource type="ConvexPolygonShape2D" id=8]
points = PoolVector2Array( 0, 0, 0, 0, 70, 70, 0, 70 )

[sub_resource type="ConvexPolygonShape2D" id=9]
points = PoolVector2Array( 70, 70, 0, 70, 0, 0, 70, 0 )

[sub_resource type="ConvexPolygonShape2D" id=10]
points = PoolVector2Array( 70, 70, 0, 70, 0, 0, 70, 0 )

[sub_resource type="ConvexPolygonShape2D" id=11]
points = PoolVector2Array( 70, 70, 0, 70, 0, 0, 70, 0 )

[sub_resource type="ConvexPolygonShape2D" id=12]
points = PoolVector2Array( 70, 70, 0, 70, 0, 0, 70, 0 )

[sub_resource type="ConvexPolygonShape2D" id=13]
points = PoolVector2Array( 70, 70, 0, 70, 0, 0, 70, 0 )

[sub_resource type="ConvexPolygonShape2D" id=14]
points = PoolVector2Array( 70, 70, 0, 70, 0, 0, 70, 0 )

[sub_resource type="ConvexPolygonShape2D" id=15]
points = PoolVector2Array( 70, 70, 0, 70, 0, 0, 70, 0 )

[sub_resource type="ConvexPolygonShape2D" id=16]
points = PoolVector2Array( 0, 0, 0, 0, 70, 0, 0, 70 )

[sub_resource type="ConvexPolygonShape2D" id=17]
points = PoolVector2Array( 0, 0, 0, 0, 70, 0, 70, 70 )

[sub_resource type="TileSet" id=18]
0/name = "GrassGround.png 0"
0/texture = ExtResource( 1 )
0/tex_offset = Vector2( 0, 0 )
0/modulate = Color( 1, 1, 1, 1 )
0/region = Rect2( 0, 0, 420, 490 )
0/tile_mode = 2
0/autotile/icon_coordinate = Vector2( 0, 0 )
0/autotile/tile_size = Vector2( 70, 70 )
0/autotile/spacing = 0
0/autotile/occluder_map = [  ]
0/autotile/navpoly_map = [  ]
0/autotile/priority_map = [  ]
0/autotile/z_index_map = [  ]
0/occluder_offset = Vector2( 0, 0 )
0/navigation_offset = Vector2( 0, 0 )
0/shape_offset = Vector2( 0, 0 )
0/shape_transform = Transform2D( 1, 0, 0, 1, 0, 0 )
0/shape = SubResource( 1 )
0/shape_one_way = false
0/shape_one_way_margin = 1.0
0/shapes = [ {
"autotile_coord": Vector2( 3, 2 ),
"one_way": false,
"one_way_margin": 1.0,
"shape": SubResource( 1 ),
"shape_transform": Transform2D( 1, 0, 0, 1, 0, 0 )
}, {
"autotile_coord": Vector2( 3, 3 ),
"one_way": false,
"one_way_margin": 1.0,
"shape": SubResource( 2 ),
"shape_transform": Transform2D( 1, 0, 0, 1, 0, 0 )
}, {
"autotile_coord": Vector2( 4, 3 ),
"one_way": false,
"one_way_margin": 1.0,
"shape": SubResource( 3 ),
"shape_transform": Transform2D( 1, 0, 0, 1, 0, 0 )
}, {
"autotile_coord": Vector2( 4, 2 ),
"one_way": false,
"one_way_margin": 1.0,
"shape": SubResource( 4 ),
"shape_transform": Transform2D( 1, 0, 0, 1, 0, 0 )
}, {
"autotile_coord": Vector2( 4, 4 ),
"one_way": false,
"one_way_margin": 1.0,
"shape": SubResource( 5 ),
"shape_transform": Transform2D( 1, 0, 0, 1, 0, 0 )
}, {
"autotile_coord": Vector2( 4, 5 ),
"one_way": false,
"one_way_margin": 1.0,
"shape": SubResource( 6 ),
"shape_transform": Transform2D( 1, 0, 0, 1, 0, 0 )
}, {
"autotile_coord": Vector2( 3, 6 ),
"one_way": false,
"one_way_margin": 1.0,
"shape": SubResource( 7 ),
"shape_transform": Transform2D( 1, 0, 0, 1, 0, 0 )
}, {
"autotile_coord": Vector2( 4, 0 ),
"one_way": false,
"one_way_margin": 1.0,
"shape": SubResource( 8 ),
"shape_transform": Transform2D( 1, 0, 0, 1, 0, 0 )
}, {
"autotile_coord": Vector2( 3, 0 ),
"one_way": false,
"one_way_margin": 1.0,
"shape": SubResource( 9 ),
"shape_transform": Transform2D( 1, 0, 0, 1, 0, 0 )
}, {
"autotile_coord": Vector2( 3, 1 ),
"one_way": false,
"one_way_margin": 1.0,
"shape": SubResource( 10 ),
"shape_transform": Transform2D( 1, 0, 0, 1, 0, 0 )
}, {
"autotile_coord": Vector2( 2, 2 ),
"one_way": false,
"one_way_margin": 1.0,
"shape": SubResource( 11 ),
"shape_transform": Transform2D( 1, 0, 0, 1, 0, 0 )
}, {
"autotile_coord": Vector2( 2, 6 ),
"one_way": false,
"one_way_margin": 1.0,
"shape": SubResource( 12 ),
"shape_transform": Transform2D( 1, 0, 0, 1, 0, 0 )
}, {
"autotile_coord": Vector2( 1, 4 ),
"one_way": false,
"one_way_margin": 1.0,
"shape": SubResource( 13 ),
"shape_transform": Transform2D( 1, 0, 0, 1, 0, 0 )
}, {
"autotile_coord": Vector2( 0, 5 ),
"one_way": false,
"one_way_margin": 1.0,
"shape": SubResource( 14 ),
"shape_transform": Transform2D( 1, 0, 0, 1, 0, 0 )
}, {
"autotile_coord": Vector2( 5, 0 ),
"one_way": false,
"one_way_margin": 1.0,
"shape": SubResource( 15 ),
"shape_transform": Transform2D( 1, 0, 0, 1, 0, 0 )
}, {
"autotile_coord": Vector2( 1, 6 ),
"one_way": false,
"one_way_margin": 1.0,
"shape": SubResource( 16 ),
"shape_transform": Transform2D( 1, 0, 0, 1, 0, 0 )
}, {
"autotile_coord": Vector2( 1, 5 ),
"one_way": false,
"one_way_margin": 1.0,
"shape": SubResource( 17 ),
"shape_transform": Transform2D( 1, 0, 0, 1, 0, 0 )
} ]
0/z_index = 0

[node name="TileMap" type="TileMap"]
tile_set = SubResource( 18 )
cell_size = Vector2( 70, 70 )
format = 1
